{
  "server": {
    "host": "localhost",
    "port": 8080,
    "searchEngine": "elasticsearch",
    "useOutputCacheTagging": false,
    "useOutputCache": false,
    "outputCacheDefaultTtl": 86400,
    "availableCacheTags": [
      "P",
      "C",
      "T",
      "A",
      "product",
      "category",
      "attribute",
      "taxrule"
    ],
    "invalidateCacheKey": "aeSu7aip",
    "invalidateCacheForwarding": false,
    "invalidateCacheForwardUrl": "http://localhost:3000/invalidate?key=aeSu7aip&tag=",
    "showErrorStack": false
  },
  "users": {
    "tokenInHeader": false
  },
  "orders": {
    "useServerQueue": false
  },
  "catalog": {
    "excludeDisabledProducts": false
  },
  "elasticsearch": {
    "host": "20.196.11.0",
    "index": "stg_vue_storefront_catalog_ae_en",
    "port": 9200,
    "protocol": "http",
    "requestTimeout": 5000,
    "user": "elastic",
    "password": "E1@sticS3@rch4SDG",
    "min_score": 0.01,
    "indices": [
      "stg_vue_storefront_catalog_ae_en",
      "stg_vue_storefront_catalog_ae_ar"
    ],
    "indexTypes": [
      "product",
      "category",
      "cms_block",
      "cms_page",
      "attribute",
      "taxrule",
      "review"
    ],
    "apiVersion": "7.1",
    "useRequestFilter": false,
    "overwriteRequestSourceParams": false,
    "requestParamsBlacklist": [],
    "cacheRequest": false,
    "searchScoring": {
      "attributes": {
        "attribute_code": {
          "scoreValues": {
            "attribute_value": {
              "weight": 1
            }
          }
        }
      },
      "fuzziness": 2,
      "cutoff_frequency": 0.01,
      "max_expansions": 3,
      "minimum_should_match": "75%",
      "prefix_length": 2,
      "boost_mode": "multiply",
      "score_mode": "multiply",
      "max_boost": 100,
      "function_min_score": 1
    },
    "searchableAttributes": {
      "name": {
        "boost": 4
      },
      "sku": {
        "boost": 2
      },
      "category.name": {
        "boost": 1
      }
    }
  },
  "products": {
    "fieldsToCompress": [
      "max_regular_price",
      "max_price",
      "max_regular_price",
      "minimal_regular_price",
      "final_price",
      "price",
      "special_price",
      "original_final_price",
      "original_price",
      "original_special_price",
      "final_price_incl_tax",
      "price_incl_tax",
      "special_price_incl_tax",
      "final_price_tax",
      "price_tax",
      "special_price_tax",
      "image",
      "small_image",
      "thumbnail"
    ],
    "fieldsToCompact": {
      "minimal_price": "mp",
      "has_options": "ho",
      "url_key": "u",
      "status": "s",
      "required_options": "ro",
      "name": "nm",
      "tax_class_id": "tci",
      "description": "desc",
      "minimal_regular_price": "mrp",
      "final_price": "fp",
      "price": "p",
      "special_price": "sp",
      "original_final_price": "ofp",
      "original_price": "op",
      "original_special_price": "osp",
      "final_price_incl_tax": "fpit",
      "original_price_incl_tax": "opit",
      "price_incl_tax": "pit",
      "special_price_incl_tax": "spit",
      "final_price_tax": "fpt",
      "price_tax": "pt",
      "special_price_tax": "spt",
      "original_price_tax": "opt",
      "image": "i",
      "small_image": "si",
      "thumbnail": "t"
    },
    "filterFieldMapping": {
      "category.name": "category.name.keyword"
    },
    "filterAggregationSize": {
      "default": 10,
      "size": 10,
      "color": 10
    },
    "priceFilterKey": "final_price",
    "priceFilters": {
      "ranges": [
        {
          "from": 0,
          "to": 50
        },
        {
          "from": 50,
          "to": 100
        },
        {
          "from": 100,
          "to": 150
        },
        {
          "from": 150
        }
      ]
    }
  },
  "varnish": {
    "host": "localhost",
    "port": 80,
    "method": "BAN",
    "enabled": false
  },
  "redis": {
    "host": "localhost",
    "port": 6379,
    "db": 0,
    "auth": false
  },
  "kue": {},
  "availableStores": [
    "ae_en",
    "ae_ar"
  ],
  "msi": {
    "enabled": true,
    "defaultStockId": 1
  },
  "defaultStoreCode": "ae_en",
  "storeViews": {
    "multistore": true,
    "mapStoreUrlsFor": [
      "ae_en",
      "ae_ar",
      "om_en",
      "om_ar"
    ],
    "ae_en": {
      "storeCode": "ae_en",
      "disabled": false,
      "storeId": 3,
      "websiteId": 1,
      "name": "UAE English",
      "url": "/ae_en",
      "elasticsearch": {
        "host": "/api/catalog",
        "index": "stg_vue_storefront_catalog_ae_en",
        "magento": {
          "product": "stg_vue_storefront_catalog_ae_en_product",
          "deal": "stg_vue_storefront_catalog_ae_en_deal",
          "attribute": "stg_vue_storefront_catalog_ae_en_attribute",
          "category": "stg_vue_storefront_catalog_ae_en_category"
        },
        "drupal": {
          "index": "dev_uae_content",
          "mobile": {
            "index": "dev_mobile_content_ae_en"
          }
        }
      },
      "tax": {
        "defaultCountry": "US",
        "defaultRegion": "",
        "calculateServerSide": true,
        "sourcePriceIncludesTax": false,
        "deprecatedPriceFieldsSupport": false,
        "finalPriceIncludesTax": true,
        "userGroupId": null,
        "useOnlyDefaultUserGroupId": false
      },
      "i18n": {
        "fullCountryName": "United States",
        "fullLanguageName": "English",
        "defaultLanguage": "en",
        "defaultCountry": "US",
        "defaultLocale": "en-US",
        "currencyCode": "SR",
        "currencySign": "SR",
        "dateFormat": "HH:mm D-M-YYYY",
        "backendLocale": "en_US"
      }
    },
    "ae_ar": {
      "storeCode": "ae_ar",
      "disabled": false,
      "storeId": 3,
      "websiteId": 1,
      "name": "UAE Arabic",
      "url": "/ae_ar",
      "elasticsearch": {
        "magento": {
          "product": "stg_vue_storefront_catalog_ae_ar_product",
          "deal": "stg_vue_storefront_catalog_ae_ar_deal",
          "attribute": "stg_vue_storefront_catalog_ae_ar_attribute"
        },
        "drupal": {
          "index": "drupal_dev_web_content_ae_ar",
          "mobile": {
            "index": "dev_mobile_content_ae_ar"
          }
        }
      },
      "tax": {
        "defaultCountry": "US",
        "defaultRegion": "",
        "calculateServerSide": true,
        "sourcePriceIncludesTax": false,
        "deprecatedPriceFieldsSupport": false,
        "finalPriceIncludesTax": true,
        "userGroupId": null,
        "useOnlyDefaultUserGroupId": false
      },
      "i18n": {
        "fullCountryName": "United States",
        "fullLanguageName": "English",
        "defaultLanguage": "en",
        "defaultCountry": "US",
        "defaultLocale": "en-US",
        "currencyCode": "SR",
        "currencySign": "SR",
        "dateFormat": "HH:mm D-M-YYYY",
        "backendLocale": "en_US"
      }
    },
    "om_en": {
      "storeCode": "ae_en",
      "disabled": false,
      "storeId": 3,
      "websiteId": 1,
      "name": "UAE English",
      "url": "/ae_en",
      "elasticsearch": {
        "host": "/api/catalog",
        "index": "stg_vue_storefront_catalog_ae_en",
        "magento": {
          "product": "stg_vue_storefront_catalog_ae_en_product",
          "deal": "stg_vue_storefront_catalog_ae_en_deal",
          "attribute": "stg_vue_storefront_catalog_ae_en_attribute"
        },
        "drupal": {
          "index": "dev_uae_content",
          "mobile": {
            "index": "mobile_dev_uae_en_content"
          }
        }
      },
      "tax": {
        "defaultCountry": "US",
        "defaultRegion": "",
        "calculateServerSide": true,
        "sourcePriceIncludesTax": false,
        "deprecatedPriceFieldsSupport": false,
        "finalPriceIncludesTax": true,
        "userGroupId": null,
        "useOnlyDefaultUserGroupId": false
      },
      "i18n": {
        "fullCountryName": "United States",
        "fullLanguageName": "English",
        "defaultLanguage": "en",
        "defaultCountry": "US",
        "defaultLocale": "en-US",
        "currencyCode": "SR",
        "currencySign": "SR",
        "dateFormat": "HH:mm D-M-YYYY",
        "backendLocale": "en_US"
      }
    },
    "om_ar": {
      "storeCode": "ae_ar",
      "disabled": false,
      "storeId": 3,
      "websiteId": 1,
      "name": "UAE Arabic",
      "url": "/ae_ar",
      "elasticsearch": {
        "magento": {
          "product": "stg_vue_storefront_catalog_ae_ar_product",
          "deal": "stg_vue_storefront_catalog_ae_ar_deal",
          "attribute": "stg_vue_storefront_catalog_ae_ar_attribute"
        },
        "drupal": {
          "index": "dev_uae_content",
          "mobile": {
            "index": "mobile_dev_uae_ar_content"
          }
        }
      },
      "tax": {
        "defaultCountry": "US",
        "defaultRegion": "",
        "calculateServerSide": true,
        "sourcePriceIncludesTax": false,
        "deprecatedPriceFieldsSupport": false,
        "finalPriceIncludesTax": true,
        "userGroupId": null,
        "useOnlyDefaultUserGroupId": false
      },
      "i18n": {
        "fullCountryName": "United States",
        "fullLanguageName": "English",
        "defaultLanguage": "en",
        "defaultCountry": "US",
        "defaultLocale": "en-US",
        "currencyCode": "SR",
        "currencySign": "SR",
        "dateFormat": "HH:mm D-M-YYYY",
        "backendLocale": "en_US"
      }
    }
  },
  "authHashSecret": "__SECRET_CHANGE_ME__",
  "objHashSecret": "__SECRET_CHANGE_ME__",
  "cart": {
    "setConfigurableProductOptions": false
  },
  "tax": {
    "defaultCountry": "PL",
    "defaultRegion": "",
    "calculateServerSide": true,
    "alwaysSyncPlatformPricesOver": false,
    "usePlatformTotals": true,
    "setConfigurableProductOptions": true,
    "sourcePriceIncludesTax": false,
    "deprecatedPriceFieldsSupport": false,
    "finalPriceIncludesTax": false,
    "userGroupId": null,
    "useOnlyDefaultUserGroupId": false
  },
  "review": {
    "defaultReviewStatus": 2
  },
  "bodyLimit": "100kb",
  "corsHeaders": [
    "Link"
  ],
  "platform": "magento2",
  "registeredExtensions": [
    "mailchimp-subscribe",
    "example-magento-api",
    "cms-data",
    "mail-service",
    "example-processor",
    "example-custom-filter",
    "newsletter",
    "elastic-stock",
    "algolia"
  ],
  "extensions": {
    "algolia": {
      "appId": "5HSR28MSN9",
      "apiKey": "b4983e32e2f50b83d3fbf6d517e3923b",
      "index": "int2_ae_en_products"
    },
    "mailchimp": {
      "listId": "e06875a7e1",
      "apiKey": "a9a3318ea7d30f5c5596bd4a78ae0985-us3",
      "apiUrl": "https://us3.api.mailchimp.com/3.0",
      "userStatus": "subscribed"
    },
    "mailService": {
      "transport": {
        "host": "smtp.gmail.com",
        "port": 465,
        "secure": true,
        "user": "vuestorefront",
        "pass": "vuestorefront.io"
      },
      "targetAddressWhitelist": [
        "contributors@vuestorefront.io"
      ],
      "secretString": "__THIS_IS_SO_SECRET__"
    },
    "example-processor": {
      "resultProcessors": {
        "product": "my-product-processor"
      }
    },
    "example-custom-filter": {
      "catalogFilter": [
        "SampleFilter"
      ]
    }
  },
  "magento2": {
    "imgUrl": "https://integration2-hohc4oi-q6n3ta6lqu7bi.us-a1.magentosite.cloud/media/catalog/product",
    "assetPath": "/../var/magento2-sample-data/pub/media",
    "api": {
      "url": "https://integration2-hohc4oi-q6n3ta6lqu7bi.us-a1.magentosite.cloud/rest",
      "consumerKey": "b27gew9e7t4h7she8rmplk7ydkelzwmn",
      "consumerSecret": "cop723u0k7wz7f06eiatcqon3mglh5yz",
      "accessToken": "aa127njt3rasf4hrjykn15kev3nmgmhp",
      "accessTokenSecret": "5enoolzqb633k702ktt6gp3yen9zjm03"
    }
  },
  "magento1": {
    "imgUrl": "http://magento-demo.local/media/catalog/product",
    "assetPath": "",
    "magentoUserName": "",
    "magentoUserPassword": "",
    "httpUserName": "",
    "httpUserPassword": "",
    "api": {
      "url": "http://magento-demo.local/vsbridge",
      "consumerKey": "",
      "consumerSecret": "",
      "accessToken": "",
      "accessTokenSecret": ""
    }
  },
  "imageable": {
    "maxListeners": 512,
    "imageSizeLimit": 1024,
    "whitelist": {
      "allowedHosts": [
        ".*divante.pl",
        ".*vuestorefront.io"
      ]
    },
    "cache": {
      "memory": 50,
      "files": 20,
      "items": 100
    },
    "concurrency": 0,
    "counters": {
      "queue": 2,
      "process": 4
    },
    "simd": true,
    "caching": {
      "active": false,
      "type": "file",
      "file": {
        "path": "/tmp/vue-storefront-api"
      },
      "google-cloud-storage": {
        "libraryOptions": {},
        "bucket": "",
        "prefix": "vue-storefront-api/image-cache"
      }
    },
    "action": {
      "type": "local"
    }
  },
  "entities": {
    "category": {
      "includeFields": [
        "children_data",
        "id",
        "children_count",
        "sku",
        "name",
        "is_active",
        "parent_id",
        "level",
        "url_key"
      ]
    },
    "attribute": {
      "includeFields": [
        "attribute_code",
        "id",
        "entity_type_id",
        "options",
        "default_value",
        "is_user_defined",
        "frontend_label",
        "attribute_id",
        "default_frontend_label",
        "is_visible_on_front",
        "is_visible",
        "is_comparable"
      ],
      "loadByAttributeMetadata": false
    },
    "product": {
      "excludeFields": [
        "updated_at",
        "created_at",
        "attribute_set_id",
        "status",
        "visibility",
        "tier_prices",
        "options_container",
        "msrp_display_actual_price_type",
        "has_options",
        "stock.manage_stock",
        "stock.use_config_min_qty",
        "stock.use_config_notify_stock_qty",
        "stock.stock_id",
        "stock.use_config_backorders",
        "stock.use_config_enable_qty_inc",
        "stock.enable_qty_increments",
        "stock.use_config_manage_stock",
        "stock.use_config_min_sale_qty",
        "stock.notify_stock_qty",
        "stock.use_config_max_sale_qty",
        "stock.use_config_max_sale_qty",
        "stock.qty_increments",
        "small_image"
      ],
      "includeFields": null,
      "filterFieldMapping": {
        "category.name": "category.name.keyword"
      }
    }
  },
  "usePriceTiers": false,
  "boost": {
    "name": 3,
    "category.name": 1,
    "short_description": 1,
    "description": 1,
    "sku": 1,
    "configurable_children.sku": 1
  },
  "urlModule": {
    "map": {
      "includeFields": [
        "url_path",
        "identifier",
        "id",
        "slug",
        "sku",
        "type_id"
      ],
      "searchedFields": [
        "url_path",
        "identifier",
        "name"
      ],
      "searchedEntities": [
        "product",
        "category",
        "cms_page"
      ]
    }
  },
  "headerMenus": {
    "topDeals": {
      "index": "stg_vue_storefront_catalog_ae_en_product",
      "maxProduct": 10,
      "type": "product"
    }
  },
  "carousel": {
    "productIndex": "stg_vue_storefront_catalog_ae_en_product",
    "maxProduct": 10,
    "productType": "product",
    "newArraivals": {
      "index": "stg_vue_storefront_catalog_ae_en_product",
      "maxProduct": 10,
      "type": "product"
    },
    "flashDeals": {
      "index": "stg_vue_storefront_catalog_ae_en_deal",
      "maxProduct": 500,
      "type": "deal"
    }
  },
  "drupal": {
    "headerMenuIndex": "header_menus",
    "footerMenuIndexUpdated": "footer_menus_updated",
    "homePageComponentsLatest": "dev_uae_content",
    "homePageComponentsMobile_uae_en": "mobile_dev_uae_en_content",
    "homePageComponentsMobile_uae_ar": "mobile_dev_uae_ar_content",
    "configContent": {
      "ae_en": "drupal_dev_web_vsf_content_config_ae_en",
      "ae_ar": "drupal_dev_web_vsf_content_config_ae_ar"
    }
  },
  "magento": {
    "productIndex": "stg_vue_storefront_catalog_ae_en_product",
    "productType": "product",
    "maxProduct": 10
  },
  "customProduct": {
    "includeAttributes": [
      "name",
      "image",
      "new",
      "price",
      "regular_price",
      "final_price",
      "special_price",
      "price_incl_tax",
      "original_price_incl_tax",
      "sku",
      "id",
      "discountable",
      "is_promoted",
      "is_sponsored",
      "status",
      "sale",
      "thumbnail",
      "type_id",
      "configurable_children",
      "url_key",
      "url_path"
    ],
    "dealsIncludeAttributes": [
      "date_from",
      "date_to",
      "discount_label",
      "product_sku",
      "status",
      "is_featured"
    ]
  },
  "social_keys": [
    {
      "social_system_id": "1000",
      "system_name": "facebook",
      "status": "1",
      "consumer_key": "303877941161091",
      "consumer_secret": "3aaa3be175c9e708c9595f4223ecaaf2"
    },
    {
      "social_system_id": "1001",
      "system_name": "google",
      "status": "1",
      "consumer_key": "563552972518-t7sbdg33381meeqvoub0m0gcinacjqee.apps.googleusercontent.com",
      "consumer_secret": "Mkz-5AYPJFzhrdFeRPngsGiy"
    },
    {
      "social_system_id": "1002",
      "system_name": "twitter",
      "status": "1",
      "consumer_key": "",
      "consumer_secret": ""
    },
    {
      "social_system_id": "1003",
      "system_name": "apple",
      "status": "1",
      "consumer_key": "",
      "consumer_secret": ""
    }
  ],
  "elasticQueryConfigs": {
    "/api/homePage": {
      "/homePageData": {
        "getProductsByCategory": {
          "platform": "magento",
          "index": "product",
          "generalQuery": "boolQuery",
          "fields": [
            {
              "category_ids": "termsQuery"
            }
          ]
        },
        "getPageLayout": {
          "platform": "drupal",
          "index": "index",
          "generalQuery": "boolQuery",
          "fields": [
            {
              "field_machine_name": "termsQuery"
            },
            {
              "url": "termsQuery"
            }
          ]
        },
        "getFlashDeals": {
          "platform": "magento",
          "index": "deal",
          "generalQuery": "boolQuery",
          "fields": [
            {
              "_type": "termsQuery"
            }
          ]
        },
        "getLatestProductsByCategory": {
          "platform": "magento",
          "index": "product",
          "generalQuery": "boolQuery",
          "fields": [
            {
              "category_ids": "termsQuery"
            },
            {
              "new": "termsQuery"
            }
          ]
        },
        "getProducts": {
          "platform": "magento",
          "index": "product",
          "generalQuery": "boolQuery",
          "fields": [
            {
              "sku": "termsQuery"
            }
          ]
        }
      },
      "/headerFooterData": {
        "getPageLayout": {
          "platform": "drupal",
          "index": "index",
          "generalQuery": "boolQuery",
          "fields": [
            {
              "field_machine_name": "termsQuery"
            },
            {
              "url": "termsQuery"
            }
          ]
        },
        "getProducts": {
          "platform": "magento",
          "index": "product",
          "generalQuery": "boolQuery",
          "fields": [
            {
              "sku": "termsQuery"
            }
          ]
        }
      },
      "/getFlashdeals": {
        "getFlashDeals": {
          "platform": "magento",
          "index": "deal",
          "generalQuery": "boolQuery",
          "fields": [
            {
              "_type": "termsQuery"
            }
          ]
        },
        "getProducts": {
          "platform": "magento",
          "index": "product",
          "generalQuery": "boolQuery",
          "fields": [
            {
              "sku": "termsQuery"
            }
          ]
        }
      }
    },
    "/api/pdpPage": {
      "/getPDPLayout": {
        "getPageLayout": {
          "platform": "drupal",
          "index": "index",
          "generalQuery": "boolQuery",
          "fields": [
            {
              "field_machine_name": "termsQuery"
            },
            {
              "url": "termsQuery"
            }
          ]
        },
        "getProducts": {
          "platform": "magento",
          "index": "product",
          "generalQuery": "boolQuery",
          "fields": [
            {
              "sku": "termsQuery"
            }
          ]
        },
        "getProductsByURL": {
          "platform": "magento",
          "index": "product",
          "generalQuery": "boolQuery",
          "fields": [
            {
              "url_path": "termsQuery"
            }
          ]
        }
      }
    },
    "/api/clpPage": {
      "/getClpData": {
        "getPageLayout": {
          "platform": "drupal",
          "index": "index",
          "generalQuery": "boolQuery",
          "fields": [
            {
              "field_machine_name": "termsQuery"
            },
            {
              "url": "termsQuery"
            }
          ]
        },
        "getProductsByCategory": {
          "platform": "magento",
          "index": "product",
          "generalQuery": "boolQuery",
          "fields": [
            {
              "category_ids": "termsQuery"
            }
          ]
        },
        "getCategory": {
          "platform": "magento",
          "index": "category",
          "generalQuery": "boolQuery",
          "fields": [
            {
              "id": "termsQuery"
            }
          ]
        }
      }
    },
    "/api/stores":{
      "/getStores":{
        "getStores":{
          "platform": "drupal",
          "index": "index",
          "fields": [
            {
              "field_store_code": "queryString"
            }
          ]

        }
      }
    }
  }
}